C:\Users\User1\Downloads\account\account\src\test\java\com\demo\account\test\controller\TransactionDetailControllerTest.java
C:\Users\User1\Downloads\account\account\src\test\java\com\demo\account\test\service\SavingAccountServiceImplTest.java
C:\Users\User1\Downloads\account\account\src\test\java\com\demo\account\AccountApplicationTests.java
C:\Users\User1\Downloads\account\account\src\test\java\com\demo\account\test\service\CustomerControllerTest.java
C:\Users\User1\Downloads\account\account\src\test\java\com\demo\account\TestSuite.java
C:\Users\User1\Downloads\account\account\src\test\java\com\demo\account\test\controller\CustomerControllerTest.java
C:\Users\User1\Downloads\account\account\src\test\java\com\demo\account\test\controller\BeneficieryControllerTest.java
C:\Users\User1\Downloads\account\account\src\test\java\com\demo\account\test\service\BeneficiaryTest.java
